Variables=alpha[deg],CL[-]
2.999956e+01 1.251025e+00
2.999921e+01 1.239040e+00
2.999877e+01 1.227119e+00
2.999822e+01 1.215300e+00
2.999758e+01 1.203791e+00
2.999684e+01 1.192768e+00
2.999600e+01 1.182159e+00
2.999507e+01 1.171992e+00
2.999403e+01 1.162751e+00
2.999289e+01 1.154507e+00
2.999166e+01 1.146770e+00
2.999033e+01 1.139002e+00
2.998890e+01 1.131360e+00
2.998737e+01 1.124382e+00
2.998574e+01 1.117603e+00
2.998402e+01 1.110863e+00
2.998219e+01 1.104304e+00
2.998027e+01 1.097932e+00
2.997825e+01 1.091251e+00
2.997613e+01 1.084422e+00
2.997391e+01 1.077491e+00
2.997159e+01 1.070650e+00
2.996917e+01 1.064140e+00
2.996666e+01 1.058046e+00
2.996405e+01 1.052317e+00
2.996134e+01 1.046802e+00
2.995853e+01 1.041346e+00
2.995562e+01 1.035773e+00
2.995261e+01 1.030242e+00
2.994951e+01 1.024857e+00
2.994631e+01 1.019647e+00
2.994301e+01 1.014634e+00
2.993961e+01 1.009945e+00
2.993611e+01 1.005740e+00
2.993252e+01 1.002001e+00
2.992883e+01 9.988199e-01
2.992504e+01 9.961714e-01
2.992115e+01 9.940357e-01
2.991716e+01 9.924216e-01
2.991308e+01 9.913897e-01
2.990889e+01 9.907435e-01
2.990461e+01 9.905801e-01
2.990024e+01 9.908787e-01
2.989576e+01 9.915842e-01
2.989119e+01 9.926841e-01
2.988652e+01 9.943153e-01
2.988175e+01 9.964276e-01
2.987688e+01 9.989361e-01
2.987192e+01 1.001776e+00
2.986686e+01 1.004803e+00
2.986170e+01 1.007907e+00
2.985645e+01 1.011202e+00
2.985109e+01 1.014840e+00
2.984564e+01 1.018960e+00
2.984010e+01 1.023631e+00
2.983445e+01 1.028850e+00
2.982871e+01 1.034582e+00
2.982287e+01 1.040779e+00
2.981694e+01 1.047439e+00
2.981091e+01 1.054531e+00
2.980478e+01 1.061919e+00
2.979855e+01 1.069577e+00
2.979223e+01 1.077487e+00
2.978581e+01 1.085626e+00
2.977929e+01 1.094002e+00
2.977268e+01 1.102638e+00
2.976597e+01 1.111533e+00
2.975917e+01 1.120707e+00
2.975227e+01 1.130161e+00
2.974527e+01 1.139865e+00
2.973818e+01 1.149780e+00
2.973099e+01 1.159868e+00
2.972370e+01 1.170138e+00
2.971632e+01 1.180493e+00
2.970884e+01 1.190896e+00
2.970127e+01 1.201430e+00
2.969360e+01 1.212202e+00
2.968583e+01 1.223178e+00
2.967797e+01 1.234326e+00
2.967001e+01 1.245597e+00
2.966196e+01 1.256884e+00
2.965382e+01 1.268130e+00
2.964557e+01 1.279314e+00
2.963724e+01 1.290440e+00
2.962880e+01 1.301398e+00
2.962028e+01 1.312132e+00
2.961165e+01 1.322684e+00
2.960294e+01 1.332917e+00
2.959412e+01 1.342768e+00
2.958522e+01 1.352311e+00
2.957622e+01 1.361530e+00
2.956712e+01 1.370421e+00
2.955793e+01 1.378914e+00
2.954865e+01 1.386916e+00
2.953927e+01 1.394324e+00
2.952979e+01 1.401058e+00
2.952023e+01 1.407089e+00
2.951056e+01 1.412391e+00
2.950081e+01 1.416864e+00
2.949096e+01 1.420451e+00
2.948102e+01 1.423082e+00
2.947098e+01 1.424700e+00
2.946085e+01 1.425242e+00
2.945063e+01 1.424812e+00
2.944031e+01 1.423392e+00
2.942991e+01 1.420736e+00
2.941940e+01 1.416712e+00
2.940881e+01 1.411594e+00
2.939812e+01 1.405092e+00
2.938734e+01 1.397343e+00
2.937647e+01 1.388475e+00
2.936550e+01 1.378594e+00
2.935444e+01 1.367856e+00
2.934329e+01 1.356522e+00
2.933205e+01 1.344917e+00
2.932071e+01 1.333209e+00
2.930928e+01 1.321387e+00
2.929777e+01 1.309597e+00
2.928615e+01 1.298025e+00
2.927445e+01 1.287028e+00
2.926266e+01 1.276826e+00
2.925077e+01 1.267593e+00
2.923880e+01 1.259336e+00
2.922673e+01 1.251874e+00
2.921457e+01 1.245344e+00
2.920232e+01 1.240123e+00
2.918998e+01 1.236211e+00
2.917755e+01 1.233343e+00
2.916502e+01 1.231176e+00
2.915241e+01 1.229432e+00
2.913971e+01 1.227818e+00
2.912692e+01 1.226237e+00
2.911403e+01 1.224640e+00
2.910106e+01 1.222949e+00
2.908800e+01 1.221052e+00
2.907484e+01 1.218705e+00
2.906160e+01 1.215535e+00
2.904827e+01 1.211629e+00
2.903485e+01 1.207028e+00
2.902134e+01 1.201682e+00
2.900774e+01 1.195771e+00
2.899405e+01 1.189620e+00
2.898028e+01 1.183228e+00
2.896641e+01 1.176825e+00
2.895246e+01 1.170386e+00
2.893841e+01 1.164219e+00
2.892428e+01 1.158241e+00
2.891007e+01 1.152378e+00
2.889576e+01 1.146999e+00
2.888136e+01 1.142140e+00
2.886688e+01 1.137566e+00
2.885231e+01 1.133132e+00
2.883766e+01 1.128856e+00
2.882291e+01 1.124804e+00
2.880808e+01 1.120928e+00
2.879316e+01 1.117160e+00
2.877816e+01 1.113304e+00
2.876307e+01 1.109233e+00
2.874789e+01 1.104366e+00
2.873262e+01 1.099199e+00
2.871727e+01 1.094007e+00
2.870184e+01 1.088864e+00
2.868631e+01 1.083698e+00
2.867071e+01 1.078691e+00
2.865501e+01 1.074070e+00
2.863923e+01 1.070029e+00
2.862337e+01 1.066584e+00
2.860742e+01 1.063764e+00
2.859139e+01 1.061507e+00
2.857527e+01 1.059769e+00
2.855906e+01 1.058472e+00
2.854277e+01 1.057541e+00
2.852640e+01 1.056978e+00
2.850994e+01 1.056758e+00
2.849340e+01 1.056874e+00
2.847678e+01 1.057363e+00
2.846007e+01 1.058340e+00
2.844328e+01 1.059786e+00
2.842640e+01 1.061667e+00
2.840945e+01 1.063967e+00
2.839240e+01 1.066795e+00
2.837528e+01 1.070172e+00
2.835807e+01 1.074129e+00
2.834078e+01 1.078796e+00
2.832341e+01 1.084272e+00
2.830596e+01 1.090786e+00
2.828842e+01 1.098407e+00
2.827081e+01 1.106647e+00
2.825311e+01 1.114990e+00
2.823533e+01 1.123366e+00
2.821746e+01 1.131859e+00
2.819952e+01 1.140486e+00
2.818150e+01 1.149244e+00
2.816339e+01 1.158271e+00
2.814521e+01 1.167731e+00
2.812694e+01 1.177774e+00
2.810860e+01 1.188506e+00
2.809017e+01 1.199975e+00
2.807166e+01 1.212203e+00
2.805308e+01 1.225131e+00
2.803441e+01 1.238460e+00
2.801567e+01 1.252075e+00
2.799685e+01 1.266404e+00
2.797794e+01 1.280715e+00
2.795896e+01 1.295357e+00
2.793990e+01 1.310362e+00
2.792077e+01 1.325632e+00
2.790155e+01 1.340926e+00
2.788226e+01 1.356200e+00
2.786288e+01 1.371463e+00
2.784344e+01 1.386673e+00
2.782391e+01 1.401642e+00
2.780430e+01 1.416203e+00
2.778462e+01 1.430133e+00
2.776486e+01 1.443302e+00
2.774503e+01 1.455579e+00
2.772512e+01 1.466819e+00
2.770513e+01 1.476923e+00
2.768507e+01 1.485768e+00
2.766493e+01 1.493164e+00
2.764472e+01 1.498957e+00
2.762442e+01 1.502899e+00
2.760406e+01 1.505070e+00
2.758362e+01 1.505813e+00
2.756310e+01 1.505254e+00
2.754251e+01 1.503411e+00
2.752185e+01 1.500171e+00
2.750111e+01 1.495390e+00
2.748030e+01 1.488913e+00
2.745941e+01 1.480655e+00
2.743845e+01 1.470672e+00
2.741742e+01 1.459125e+00
2.739631e+01 1.446240e+00
2.737513e+01 1.432392e+00
2.735388e+01 1.417284e+00
2.733255e+01 1.401097e+00
2.731116e+01 1.384168e+00
2.728969e+01 1.366579e+00
2.726814e+01 1.348622e+00
2.724653e+01 1.330922e+00
2.722485e+01 1.314093e+00
2.720309e+01 1.298558e+00
2.718126e+01 1.284463e+00
2.715936e+01 1.271963e+00
2.713740e+01 1.261003e+00
2.711536e+01 1.251610e+00
2.709325e+01 1.243581e+00
2.707107e+01 1.236706e+00
2.704882e+01 1.230949e+00
2.702650e+01 1.225813e+00
2.700411e+01 1.220647e+00
2.698165e+01 1.215336e+00
2.695913e+01 1.209939e+00
2.693653e+01 1.204270e+00
2.691387e+01 1.198247e+00
2.689114e+01 1.191734e+00
2.686834e+01 1.184492e+00
2.684547e+01 1.176477e+00
2.682254e+01 1.167439e+00
2.679953e+01 1.157722e+00
2.677646e+01 1.147390e+00
2.675333e+01 1.136571e+00
2.673012e+01 1.125474e+00
2.670686e+01 1.114646e+00
2.668352e+01 1.104491e+00
2.666012e+01 1.094759e+00
2.663665e+01 1.084588e+00
2.661312e+01 1.074200e+00
2.658952e+01 1.064109e+00
2.656586e+01 1.054717e+00
2.654213e+01 1.046122e+00
2.651834e+01 1.037990e+00
2.649448e+01 1.030121e+00
2.647056e+01 1.022509e+00
2.644657e+01 1.015264e+00
2.642253e+01 1.008349e+00
2.639842e+01 1.001603e+00
2.637424e+01 9.949362e-01
2.635000e+01 9.885169e-01
2.632570e+01 9.823006e-01
2.630134e+01 9.763326e-01
2.627691e+01 9.706214e-01
2.625243e+01 9.651675e-01
2.622788e+01 9.599005e-01
2.620327e+01 9.546970e-01
2.617860e+01 9.494778e-01
2.615386e+01 9.443019e-01
2.612907e+01 9.393083e-01
2.610422e+01 9.346507e-01
2.607930e+01 9.303136e-01
2.605433e+01 9.262282e-01
2.602930e+01 9.224340e-01
2.600420e+01 9.191838e-01
2.597905e+01 9.167428e-01
2.595384e+01 9.152976e-01
2.592857e+01 9.145390e-01
2.590324e+01 9.144966e-01
2.587785e+01 9.151491e-01
2.585241e+01 9.163117e-01
2.582691e+01 9.178848e-01
2.580134e+01 9.198006e-01
2.577573e+01 9.221063e-01
2.575005e+01 9.249552e-01
2.572432e+01 9.284372e-01
2.569853e+01 9.326599e-01
2.567269e+01 9.374958e-01
2.564679e+01 9.427486e-01
2.562083e+01 9.485257e-01
2.559482e+01 9.545053e-01
2.556876e+01 9.607025e-01
2.554263e+01 9.672653e-01
2.551646e+01 9.742448e-01
2.549023e+01 9.816026e-01
2.546394e+01 9.892915e-01
2.543760e+01 9.971866e-01
2.541121e+01 1.005451e+00
2.538477e+01 1.014744e+00
2.535827e+01 1.024074e+00
2.533172e+01 1.033739e+00
2.530511e+01 1.043638e+00
2.527845e+01 1.053473e+00
2.525175e+01 1.063101e+00
2.522499e+01 1.072523e+00
2.519817e+01 1.081810e+00
2.517131e+01 1.091033e+00
2.514440e+01 1.100212e+00
2.511743e+01 1.109365e+00
2.509041e+01 1.118580e+00
2.506335e+01 1.127434e+00
2.503623e+01 1.136116e+00
2.500907e+01 1.145199e+00
2.498185e+01 1.154678e+00
2.495459e+01 1.164217e+00
2.492727e+01 1.173510e+00
2.489991e+01 1.182194e+00
2.487250e+01 1.190172e+00
2.484504e+01 1.197389e+00
2.481754e+01 1.203863e+00
2.478998e+01 1.210112e+00
2.476238e+01 1.215783e+00
2.473473e+01 1.220946e+00
2.470704e+01 1.225551e+00
2.467930e+01 1.229409e+00
2.465151e+01 1.232224e+00
2.462368e+01 1.233886e+00
2.459580e+01 1.234344e+00
2.456787e+01 1.233558e+00
2.453991e+01 1.231491e+00
2.451189e+01 1.228177e+00
2.448383e+01 1.223583e+00
2.445573e+01 1.217706e+00
2.442758e+01 1.210550e+00
2.439939e+01 1.201915e+00
2.437116e+01 1.192100e+00
2.434288e+01 1.181560e+00
2.431456e+01 1.170935e+00
2.428620e+01 1.160319e+00
2.425779e+01 1.149611e+00
2.422935e+01 1.138736e+00
2.420086e+01 1.127617e+00
2.417233e+01 1.116209e+00
2.414376e+01 1.104432e+00
2.411514e+01 1.091866e+00
2.408649e+01 1.078315e+00
2.405780e+01 1.064427e+00
2.402906e+01 1.050556e+00
2.400029e+01 1.036781e+00
2.397148e+01 1.023381e+00
2.394263e+01 1.011000e+00
2.391374e+01 1.000160e+00
2.388481e+01 9.907417e-01
2.385584e+01 9.825607e-01
2.382683e+01 9.753109e-01
2.379779e+01 9.687141e-01
2.376871e+01 9.628550e-01
2.373959e+01 9.577294e-01
2.371044e+01 9.530207e-01
2.368125e+01 9.486844e-01
2.365202e+01 9.446976e-01
2.362275e+01 9.408688e-01
2.359345e+01 9.370680e-01
2.356412e+01 9.332785e-01
2.353475e+01 9.297217e-01
2.350534e+01 9.268166e-01
2.347590e+01 9.243538e-01
2.344643e+01 9.219244e-01
2.341692e+01 9.192820e-01
2.338738e+01 9.161451e-01
2.335780e+01 9.121748e-01
2.332820e+01 9.075167e-01
2.329855e+01 9.024881e-01
2.326888e+01 8.972911e-01
2.323917e+01 8.920915e-01
2.320944e+01 8.869344e-01
2.317967e+01 8.819269e-01
2.314987e+01 8.767648e-01
2.312003e+01 8.715958e-01
2.309017e+01 8.668297e-01
2.306028e+01 8.624986e-01
2.303035e+01 8.585254e-01
2.300040e+01 8.549035e-01
2.297042e+01 8.514109e-01
2.294040e+01 8.479478e-01
2.291036e+01 8.445388e-01
2.288029e+01 8.416236e-01
2.285019e+01 8.394350e-01
2.282007e+01 8.377530e-01
2.278991e+01 8.359494e-01
2.275973e+01 8.339377e-01
2.272952e+01 8.323315e-01
2.269928e+01 8.315126e-01
2.266902e+01 8.312769e-01
2.263873e+01 8.317249e-01
2.260842e+01 8.328269e-01
2.257807e+01 8.346292e-01
2.254771e+01 8.370565e-01
2.251731e+01 8.401285e-01
2.248690e+01 8.439901e-01
2.245646e+01 8.488030e-01
2.242599e+01 8.543924e-01
2.239550e+01 8.604054e-01
2.236499e+01 8.666130e-01
2.233445e+01 8.730524e-01
2.230389e+01 8.798789e-01
2.227331e+01 8.873299e-01
2.224271e+01 8.953785e-01
2.221208e+01 9.039063e-01
2.218143e+01 9.128164e-01
2.215076e+01 9.220719e-01
2.212007e+01 9.321189e-01
2.208936e+01 9.424580e-01
2.205863e+01 9.529354e-01
2.202787e+01 9.634408e-01
2.199710e+01 9.736743e-01
2.196631e+01 9.830232e-01
2.193550e+01 9.917221e-01
2.190466e+01 9.996801e-01
2.187381e+01 1.006715e+00
2.184294e+01 1.013679e+00
2.181206e+01 1.020913e+00
2.178115e+01 1.028119e+00
2.175023e+01 1.035283e+00
2.171929e+01 1.042337e+00
2.168833e+01 1.049105e+00
2.165736e+01 1.055276e+00
2.162637e+01 1.060654e+00
2.159537e+01 1.065231e+00
2.156435e+01 1.069197e+00
2.153331e+01 1.072700e+00
2.150226e+01 1.075775e+00
2.147119e+01 1.078210e+00
2.144011e+01 1.079789e+00
2.140901e+01 1.080198e+00
2.137790e+01 1.079360e+00
2.134678e+01 1.077268e+00
2.131564e+01 1.073925e+00
2.128449e+01 1.069315e+00
2.125333e+01 1.063258e+00
2.122216e+01 1.055900e+00
2.119097e+01 1.047785e+00
2.115977e+01 1.039350e+00
2.112856e+01 1.030857e+00
2.109734e+01 1.022320e+00
2.106611e+01 1.013627e+00
2.103487e+01 1.004698e+00
2.100362e+01 9.954084e-01
2.097235e+01 9.857981e-01
2.094108e+01 9.758832e-01
2.090980e+01 9.653186e-01
2.087851e+01 9.541423e-01
2.084721e+01 9.426850e-01
2.081591e+01 9.309598e-01
2.078459e+01 9.191031e-01
2.075327e+01 9.073821e-01
2.072194e+01 8.960983e-01
2.069060e+01 8.855134e-01
2.065926e+01 8.755607e-01
2.062791e+01 8.662754e-01
2.059655e+01 8.573373e-01
2.056519e+01 8.487823e-01
2.053382e+01 8.409828e-01
2.050244e+01 8.342924e-01
2.047107e+01 8.286152e-01
2.043968e+01 8.237545e-01
2.040829e+01 8.195676e-01
2.037690e+01 8.154488e-01
2.034551e+01 8.115011e-01
2.031411e+01 8.079358e-01
2.028271e+01 8.049367e-01
2.025130e+01 8.025018e-01
2.021989e+01 8.010156e-01
2.018848e+01 7.997347e-01
2.015707e+01 7.987321e-01
2.012566e+01 7.981072e-01
2.009425e+01 7.978226e-01
2.006283e+01 7.978762e-01
2.003142e+01 7.982299e-01
2.000000e+01 7.988109e-01
1.996858e+01 7.995350e-01
1.993717e+01 8.003417e-01
1.990575e+01 8.011828e-01
1.987434e+01 8.021170e-01
1.984293e+01 8.033725e-01
1.981152e+01 8.049510e-01
1.978011e+01 8.068216e-01
1.974870e+01 8.089762e-01
1.971729e+01 8.115064e-01
1.968589e+01 8.145195e-01
1.965449e+01 8.179873e-01
1.962310e+01 8.215876e-01
1.959171e+01 8.251378e-01
1.956032e+01 8.287330e-01
1.952894e+01 8.322401e-01
1.949756e+01 8.356465e-01
1.946618e+01 8.391493e-01
1.943481e+01 8.427881e-01
1.940345e+01 8.465648e-01
1.937210e+01 8.504724e-01
1.934074e+01 8.544793e-01
1.930940e+01 8.587283e-01
1.927806e+01 8.631834e-01
1.924673e+01 8.678603e-01
1.921541e+01 8.727306e-01
1.918409e+01 8.776729e-01
1.915279e+01 8.825329e-01
1.912149e+01 8.872489e-01
1.909020e+01 8.917061e-01
1.905892e+01 8.957274e-01
1.902764e+01 8.989109e-01
1.899638e+01 9.011472e-01
1.896513e+01 9.026191e-01
1.893389e+01 9.035807e-01
1.890266e+01 9.041080e-01
1.887144e+01 9.045029e-01
1.884023e+01 9.043418e-01
1.880903e+01 9.037484e-01
1.877784e+01 9.026463e-01
1.874667e+01 9.010433e-01
1.871551e+01 8.987958e-01
1.868436e+01 8.957487e-01
1.865322e+01 8.917640e-01
1.862210e+01 8.868654e-01
1.859099e+01 8.810044e-01
1.855989e+01 8.743247e-01
1.852881e+01 8.669867e-01
1.849774e+01 8.590124e-01
1.846669e+01 8.503718e-01
1.843566e+01 8.411489e-01
1.840463e+01 8.314244e-01
1.837363e+01 8.212809e-01
1.834264e+01 8.108560e-01
1.831166e+01 8.002711e-01
1.828071e+01 7.895301e-01
1.824977e+01 7.787137e-01
1.821885e+01 7.679693e-01
1.818794e+01 7.575247e-01
1.815706e+01 7.473877e-01
1.812619e+01 7.372983e-01
1.809534e+01 7.272911e-01
1.806451e+01 7.177657e-01
1.803369e+01 7.090395e-01
1.800290e+01 7.011896e-01
1.797213e+01 6.942914e-01
1.794137e+01 6.879068e-01
1.791064e+01 6.820996e-01
1.787993e+01 6.769370e-01
1.784924e+01 6.724786e-01
1.781857e+01 6.685599e-01
1.778792e+01 6.651321e-01
1.775729e+01 6.622339e-01
1.772669e+01 6.599597e-01
1.769611e+01 6.583807e-01
1.766555e+01 6.574292e-01
1.763501e+01 6.571337e-01
1.760450e+01 6.575602e-01
1.757401e+01 6.586703e-01
1.754354e+01 6.603936e-01
1.751310e+01 6.625722e-01
1.748268e+01 6.653182e-01
1.745229e+01 6.685764e-01
1.742193e+01 6.722625e-01
1.739158e+01 6.762986e-01
1.736127e+01 6.806738e-01
1.733098e+01 6.853543e-01
1.730072e+01 6.902929e-01
1.727048e+01 6.954338e-01
1.724027e+01 7.006661e-01
1.721009e+01 7.059507e-01
1.717993e+01 7.113439e-01
1.714981e+01 7.168934e-01
1.711971e+01 7.226576e-01
1.708964e+01 7.285986e-01
1.705960e+01 7.346709e-01
1.702958e+01 7.408521e-01
1.699960e+01 7.470988e-01
1.696965e+01 7.533564e-01
1.693972e+01 7.595653e-01
1.690983e+01 7.656738e-01
1.687997e+01 7.716398e-01
1.685013e+01 7.773654e-01
1.682033e+01 7.826722e-01
1.679056e+01 7.875052e-01
1.676083e+01 7.919379e-01
1.673112e+01 7.962090e-01
1.670145e+01 8.003345e-01
1.667181e+01 8.041156e-01
1.664220e+01 8.073599e-01
1.661262e+01 8.099789e-01
1.658308e+01 8.119681e-01
1.655357e+01 8.132203e-01
1.652410e+01 8.138235e-01
1.649466e+01 8.137253e-01
1.646525e+01 8.129798e-01
1.643588e+01 8.115511e-01
1.640655e+01 8.092762e-01
1.637725e+01 8.062486e-01
1.634798e+01 8.023528e-01
1.631876e+01 7.976227e-01
1.628956e+01 7.921127e-01
1.626041e+01 7.859489e-01
1.623129e+01 7.792018e-01
1.620221e+01 7.719073e-01
1.617316e+01 7.640845e-01
1.614416e+01 7.558643e-01
1.611519e+01 7.473393e-01
1.608626e+01 7.384958e-01
1.605737e+01 7.295946e-01
1.602852e+01 7.206786e-01
1.599971e+01 7.118061e-01
1.597094e+01 7.031048e-01
1.594220e+01 6.945252e-01
1.591351e+01 6.860489e-01
1.588486e+01 6.778755e-01
1.585624e+01 6.701515e-01
1.582767e+01 6.629793e-01
1.579914e+01 6.563718e-01
1.577065e+01 6.504208e-01
1.574221e+01 6.451296e-01
1.571380e+01 6.401347e-01
1.568544e+01 6.357003e-01
1.565712e+01 6.319638e-01
1.562884e+01 6.289071e-01
1.560061e+01 6.265285e-01
1.557242e+01 6.247686e-01
1.554427e+01 6.236279e-01
1.551617e+01 6.230924e-01
1.548811e+01 6.231276e-01
1.546010e+01 6.237216e-01
1.543213e+01 6.248512e-01
1.540420e+01 6.265116e-01
1.537632e+01 6.286176e-01
1.534849e+01 6.310937e-01
1.532070e+01 6.339248e-01
1.529296e+01 6.371028e-01
1.526527e+01 6.404053e-01
1.523762e+01 6.436957e-01
1.521002e+01 6.469941e-01
1.518246e+01 6.503642e-01
1.515496e+01 6.538965e-01
1.512750e+01 6.576688e-01
1.510009e+01 6.615848e-01
1.507273e+01 6.655798e-01
1.504541e+01 6.696225e-01
1.501815e+01 6.737217e-01
1.499093e+01 6.776914e-01
1.496377e+01 6.815924e-01
1.493665e+01 6.854722e-01
1.490959e+01 6.893094e-01
1.488257e+01 6.930952e-01
1.485560e+01 6.968036e-01
1.482869e+01 7.004013e-01
1.480183e+01 7.038109e-01
1.477501e+01 7.069536e-01
1.474825e+01 7.097992e-01
1.472154e+01 7.123658e-01
1.469489e+01 7.146284e-01
1.466828e+01 7.166352e-01
1.464173e+01 7.183337e-01
1.461523e+01 7.197459e-01
1.458879e+01 7.206736e-01
1.456239e+01 7.208664e-01
1.453606e+01 7.202604e-01
1.450977e+01 7.189301e-01
1.448354e+01 7.170256e-01
1.445737e+01 7.146607e-01
1.443124e+01 7.119918e-01
1.440518e+01 7.090886e-01
1.437917e+01 7.060804e-01
1.435321e+01 7.028064e-01
1.432731e+01 6.994463e-01
1.430147e+01 6.959988e-01
1.427568e+01 6.924079e-01
1.424995e+01 6.888000e-01
1.422427e+01 6.851605e-01
1.419866e+01 6.815840e-01
1.417310e+01 6.782138e-01
1.414759e+01 6.751013e-01
1.412215e+01 6.722022e-01
1.409676e+01 6.694617e-01
1.407143e+01 6.668036e-01
1.404616e+01 6.643194e-01
1.402095e+01 6.619997e-01
1.399580e+01 6.598116e-01
1.397070e+01 6.577274e-01
1.394567e+01 6.558647e-01
1.392070e+01 6.543641e-01
1.389578e+01 6.533083e-01
1.387093e+01 6.526710e-01
1.384614e+01 6.524134e-01
1.382140e+01 6.524843e-01
1.379673e+01 6.528364e-01
1.377212e+01 6.533853e-01
1.374757e+01 6.541348e-01
1.372309e+01 6.550703e-01
1.369866e+01 6.561782e-01
1.367430e+01 6.574627e-01
1.365000e+01 6.589460e-01
1.362576e+01 6.605189e-01
1.360159e+01 6.621166e-01
1.357747e+01 6.637538e-01
1.355343e+01 6.654824e-01
1.352944e+01 6.673409e-01
1.350552e+01 6.692873e-01
1.348166e+01 6.713113e-01
1.345787e+01 6.734063e-01
1.343414e+01 6.755032e-01
1.341048e+01 6.775193e-01
1.338688e+01 6.794320e-01
1.336335e+01 6.811778e-01
1.333988e+01 6.827607e-01
1.331648e+01 6.841918e-01
1.329314e+01 6.855077e-01
1.326987e+01 6.867142e-01
1.324667e+01 6.878140e-01
1.322354e+01 6.887690e-01
1.320047e+01 6.895695e-01
1.317746e+01 6.901785e-01
1.315453e+01 6.906508e-01
1.313166e+01 6.910330e-01
1.310886e+01 6.913420e-01
1.308613e+01 6.915644e-01
1.306347e+01 6.916340e-01
1.304087e+01 6.915255e-01
1.301835e+01 6.912746e-01
1.299589e+01 6.909462e-01
1.297350e+01 6.905860e-01
1.295118e+01 6.902439e-01
1.292893e+01 6.898928e-01
1.290675e+01 6.896444e-01
1.288464e+01 6.892930e-01
1.286260e+01 6.889131e-01
1.284063e+01 6.885891e-01
1.281874e+01 6.883236e-01
1.279691e+01 6.881338e-01
1.277515e+01 6.880354e-01
1.275347e+01 6.879904e-01
1.273186e+01 6.879443e-01
1.271031e+01 6.879362e-01
1.268884e+01 6.880235e-01
1.266745e+01 6.882116e-01
1.264612e+01 6.884767e-01
1.262487e+01 6.887834e-01
1.260369e+01 6.891133e-01
1.258258e+01 6.894464e-01
1.256155e+01 6.898094e-01
1.254059e+01 6.902224e-01
1.251970e+01 6.906811e-01
1.249889e+01 6.912405e-01
1.247815e+01 6.919821e-01
1.245749e+01 6.927677e-01
1.243690e+01 6.935144e-01
1.241638e+01 6.942267e-01
1.239594e+01 6.949162e-01
1.237557e+01 6.956547e-01
1.235528e+01 6.963659e-01
1.233507e+01 6.970571e-01
1.231493e+01 6.977923e-01
1.229487e+01 6.985420e-01
1.227488e+01 6.992928e-01
1.225497e+01 7.000818e-01
1.223513e+01 7.009003e-01
1.221538e+01 7.017181e-01
1.219570e+01 7.025138e-01
1.217609e+01 7.033364e-01
1.215657e+01 7.041714e-01
1.213712e+01 7.050229e-01
1.211774e+01 7.058014e-01
1.209845e+01 7.065784e-01
1.207923e+01 7.072109e-01
1.206010e+01 7.077185e-01
1.204104e+01 7.081504e-01
1.202206e+01 7.085854e-01
1.200315e+01 7.090429e-01
1.198433e+01 7.094470e-01
1.196559e+01 7.097493e-01
1.194692e+01 7.100557e-01
1.192834e+01 7.104142e-01
1.190983e+01 7.108095e-01
1.189140e+01 7.112458e-01
1.187306e+01 7.115695e-01
1.185479e+01 7.117236e-01
1.183661e+01 7.118124e-01
1.181850e+01 7.118990e-01
1.180048e+01 7.119877e-01
1.178254e+01 7.121068e-01
1.176467e+01 7.122524e-01
1.174689e+01 7.124178e-01
1.172919e+01 7.126054e-01
1.171158e+01 7.128948e-01
1.169404e+01 7.131450e-01
1.167659e+01 7.133294e-01
1.165922e+01 7.134458e-01
1.164193e+01 7.136359e-01
1.162472e+01 7.140480e-01
1.160760e+01 7.145221e-01
1.159055e+01 7.150656e-01
1.157360e+01 7.156445e-01
1.155672e+01 7.162519e-01
1.153993e+01 7.168949e-01
1.152322e+01 7.175798e-01
1.150660e+01 7.182852e-01
1.149006e+01 7.190358e-01
1.147360e+01 7.199300e-01
1.145723e+01 7.208634e-01
1.144094e+01 7.218015e-01
1.142473e+01 7.227509e-01
1.140861e+01 7.237107e-01
1.139258e+01 7.246878e-01
1.137663e+01 7.257077e-01
1.136077e+01 7.266785e-01
1.134499e+01 7.276039e-01
1.132929e+01 7.284974e-01
1.131368e+01 7.293168e-01
1.129816e+01 7.300732e-01
1.128273e+01 7.307595e-01
1.126738e+01 7.313785e-01
1.125211e+01 7.319359e-01
1.123693e+01 7.324182e-01
1.122184e+01 7.329277e-01
1.120684e+01 7.333518e-01
1.119192e+01 7.337182e-01
1.117709e+01 7.340581e-01
1.116234e+01 7.343411e-01
1.114769e+01 7.345999e-01
1.113312e+01 7.348829e-01
1.111864e+01 7.351390e-01
1.110424e+01 7.353662e-01
1.108994e+01 7.355402e-01
1.107572e+01 7.357398e-01
1.106159e+01 7.360148e-01
1.104754e+01 7.363326e-01
1.103359e+01 7.366977e-01
1.101972e+01 7.371116e-01
1.100595e+01 7.375898e-01
1.099226e+01 7.381294e-01
1.097866e+01 7.387322e-01
1.096515e+01 7.394057e-01
1.095173e+01 7.401251e-01
1.093840e+01 7.408876e-01
1.092516e+01 7.417208e-01
1.091200e+01 7.425701e-01
1.089894e+01 7.434868e-01
1.088597e+01 7.445888e-01
1.087308e+01 7.455820e-01
1.086029e+01 7.464169e-01
1.084759e+01 7.471990e-01
1.083498e+01 7.479788e-01
1.082245e+01 7.487421e-01
1.081002e+01 7.494658e-01
1.079768e+01 7.501810e-01
1.078543e+01 7.509318e-01
1.077327e+01 7.517185e-01
1.076120e+01 7.525059e-01
1.074923e+01 7.532742e-01
1.073734e+01 7.540135e-01
1.072555e+01 7.547301e-01
1.071385e+01 7.554145e-01
1.070224e+01 7.560676e-01
1.069072e+01 7.566653e-01
1.067929e+01 7.572365e-01
1.066795e+01 7.578135e-01
1.065671e+01 7.584366e-01
1.064556e+01 7.591108e-01
1.063450e+01 7.598393e-01
1.062354e+01 7.604564e-01
1.061266e+01 7.609500e-01
1.060188e+01 7.614708e-01
1.059119e+01 7.619708e-01
1.058060e+01 7.624131e-01
1.057009e+01 7.629037e-01
1.055969e+01 7.634629e-01
1.054937e+01 7.640504e-01
1.053915e+01 7.646416e-01
1.052902e+01 7.652247e-01
1.051898e+01 7.658122e-01
1.050904e+01 7.664225e-01
1.049919e+01 7.670562e-01
1.048943e+01 7.677360e-01
1.047977e+01 7.684779e-01
1.047021e+01 7.692582e-01
1.046073e+01 7.701147e-01
1.045135e+01 7.709598e-01
1.044207e+01 7.717745e-01
1.043288e+01 7.725952e-01
1.042378e+01 7.734324e-01
1.041478e+01 7.742917e-01
1.040588e+01 7.751516e-01
1.039706e+01 7.760186e-01
1.038835e+01 7.769224e-01
1.037972e+01 7.778984e-01
1.037120e+01 7.788298e-01
1.036276e+01 7.797218e-01
1.035443e+01 7.806149e-01
1.034618e+01 7.815148e-01
1.033804e+01 7.824433e-01
1.032999e+01 7.833783e-01
1.032203e+01 7.843054e-01
1.031417e+01 7.852715e-01
1.030640e+01 7.862537e-01
1.029873e+01 7.872221e-01
1.029116e+01 7.882024e-01
1.028368e+01 7.892296e-01
1.027630e+01 7.902929e-01
1.026901e+01 7.913615e-01
1.026183e+01 7.923731e-01
1.025473e+01 7.933877e-01
1.024773e+01 7.944317e-01
1.024083e+01 7.954827e-01
1.023403e+01 7.965181e-01
1.022732e+01 7.975191e-01
1.022071e+01 7.984781e-01
1.021419e+01 7.993955e-01
1.020777e+01 8.002819e-01
1.020145e+01 8.011375e-01
1.019522e+01 8.020187e-01
1.018909e+01 8.028680e-01
1.018306e+01 8.037297e-01
1.017713e+01 8.045970e-01
1.017129e+01 8.054709e-01
1.016555e+01 8.063622e-01
1.015990e+01 8.072757e-01
1.015436e+01 8.081959e-01
1.014891e+01 8.091242e-01
1.014355e+01 8.100704e-01
1.013830e+01 8.110342e-01
1.013314e+01 8.120082e-01
1.012808e+01 8.129966e-01
1.012312e+01 8.139955e-01
1.011825e+01 8.149991e-01
1.011348e+01 8.160058e-01
1.010881e+01 8.170177e-01
1.010424e+01 8.180358e-01
1.009976e+01 8.190590e-01
1.009539e+01 8.200928e-01
1.009111e+01 8.211177e-01
1.008692e+01 8.221456e-01
1.008284e+01 8.231698e-01
1.007885e+01 8.241802e-01
1.007496e+01 8.251770e-01
1.007117e+01 8.261999e-01
1.006748e+01 8.271923e-01
1.006389e+01 8.281601e-01
1.006039e+01 8.291325e-01
1.005699e+01 8.301063e-01
1.005369e+01 8.310885e-01
1.005049e+01 8.321235e-01
1.004739e+01 8.331393e-01
1.004438e+01 8.341345e-01
1.004147e+01 8.351435e-01
1.003866e+01 8.361794e-01
1.003595e+01 8.372327e-01
1.003334e+01 8.382974e-01
1.003083e+01 8.393711e-01
1.002841e+01 8.404521e-01
1.002609e+01 8.415375e-01
1.002387e+01 8.426266e-01
1.002175e+01 8.437162e-01
1.001973e+01 8.448078e-01
1.001781e+01 8.459056e-01
1.001598e+01 8.470135e-01
1.001426e+01 8.481332e-01
1.001263e+01 8.492600e-01
1.001110e+01 8.503994e-01
1.000967e+01 8.515495e-01
1.000834e+01 8.527147e-01
1.000711e+01 8.538992e-01
1.000597e+01 8.551030e-01
1.000493e+01 8.563233e-01
1.000400e+01 8.575583e-01
1.000316e+01 8.588434e-01
1.000242e+01 8.601739e-01
1.000178e+01 8.615237e-01
1.000123e+01 8.628773e-01
1.000079e+01 8.642260e-01
1.000044e+01 8.655659e-01
1.000020e+01 8.668964e-01
1.000005e+01 8.682185e-01
1.000000e+01 8.695350e-01
1.000005e+01 8.708499e-01
1.000020e+01 8.721663e-01
1.000044e+01 8.734847e-01
1.000079e+01 8.748010e-01
1.000123e+01 8.761125e-01
1.000178e+01 8.774193e-01
1.000242e+01 8.787256e-01
1.000316e+01 8.800348e-01
1.000400e+01 8.813467e-01
1.000493e+01 8.826599e-01
1.000597e+01 8.839591e-01
1.000711e+01 8.852444e-01
1.000834e+01 8.865214e-01
1.000967e+01 8.877995e-01
1.001110e+01 8.890947e-01
1.001263e+01 8.904069e-01
1.001426e+01 8.917351e-01
1.001598e+01 8.930708e-01
1.001781e+01 8.944173e-01
1.001973e+01 8.957689e-01
1.002175e+01 8.971236e-01
1.002387e+01 8.984813e-01
1.002609e+01 8.998457e-01
1.002841e+01 9.012191e-01
1.003083e+01 9.026027e-01
1.003334e+01 9.039949e-01
1.003595e+01 9.053910e-01
1.003866e+01 9.067907e-01
1.004147e+01 9.081981e-01
1.004438e+01 9.096158e-01
1.004739e+01 9.110443e-01
1.005049e+01 9.124833e-01
1.005369e+01 9.139255e-01
1.005699e+01 9.153795e-01
1.006039e+01 9.168441e-01
1.006389e+01 9.183131e-01
1.006748e+01 9.197776e-01
1.007117e+01 9.212480e-01
1.007496e+01 9.226925e-01
1.007885e+01 9.241807e-01
1.008284e+01 9.257110e-01
1.008692e+01 9.272564e-01
1.009111e+01 9.288110e-01
1.009539e+01 9.303709e-01
1.009976e+01 9.319476e-01
1.010424e+01 9.334843e-01
1.010881e+01 9.349866e-01
1.011348e+01 9.364901e-01
1.011825e+01 9.380140e-01
1.012312e+01 9.395556e-01
1.012808e+01 9.410941e-01
1.013314e+01 9.426355e-01
1.013830e+01 9.442006e-01
1.014355e+01 9.457803e-01
1.014891e+01 9.473530e-01
1.015436e+01 9.489060e-01
1.015990e+01 9.504407e-01
1.016555e+01 9.519621e-01
1.017129e+01 9.534976e-01
1.017713e+01 9.550404e-01
1.018306e+01 9.565751e-01
1.018909e+01 9.580998e-01
1.019522e+01 9.596339e-01
1.020145e+01 9.611586e-01
1.020777e+01 9.627031e-01
1.021419e+01 9.642603e-01
1.022071e+01 9.658138e-01
1.022732e+01 9.673751e-01
1.023403e+01 9.689438e-01
1.024083e+01 9.705215e-01
1.024773e+01 9.721180e-01
1.025473e+01 9.737401e-01
1.026183e+01 9.753879e-01
1.026901e+01 9.770623e-01
1.027630e+01 9.787340e-01
1.028368e+01 9.804008e-01
1.029116e+01 9.820658e-01
1.029873e+01 9.837311e-01
1.030640e+01 9.853999e-01
1.031417e+01 9.870817e-01
1.032203e+01 9.887629e-01
1.032999e+01 9.904494e-01
1.033804e+01 9.921081e-01
1.034618e+01 9.937206e-01
1.035443e+01 9.953451e-01
1.036276e+01 9.970155e-01
1.037120e+01 9.987110e-01
1.037972e+01 1.000428e+00
1.038835e+01 1.002176e+00
1.039706e+01 1.003900e+00
1.040588e+01 1.005591e+00
1.041478e+01 1.007269e+00
1.042378e+01 1.008942e+00
1.043288e+01 1.010626e+00
1.044207e+01 1.012304e+00
1.045135e+01 1.013982e+00
1.046073e+01 1.015686e+00
1.047021e+01 1.017435e+00
1.047977e+01 1.019231e+00
1.048943e+01 1.020996e+00
1.049919e+01 1.022745e+00
1.050904e+01 1.024496e+00
1.051898e+01 1.026226e+00
1.052902e+01 1.027946e+00
1.053915e+01 1.029681e+00
1.054937e+01 1.031454e+00
1.055969e+01 1.033264e+00
1.057009e+01 1.035089e+00
1.058060e+01 1.036917e+00
1.059119e+01 1.038770e+00
1.060188e+01 1.040657e+00
1.061266e+01 1.042539e+00
1.062354e+01 1.044357e+00
1.063450e+01 1.046130e+00
1.064556e+01 1.047875e+00
1.065671e+01 1.049558e+00
1.066795e+01 1.051200e+00
1.067929e+01 1.052871e+00
1.069072e+01 1.054526e+00
1.070224e+01 1.056158e+00
1.071385e+01 1.057752e+00
1.072555e+01 1.059349e+00
1.073734e+01 1.060942e+00
1.074923e+01 1.062568e+00
1.076120e+01 1.064236e+00
1.077327e+01 1.065926e+00
1.078543e+01 1.067606e+00
1.079768e+01 1.069267e+00
1.081002e+01 1.070975e+00
1.082245e+01 1.072753e+00
1.083498e+01 1.074570e+00
1.084759e+01 1.076420e+00
1.086029e+01 1.078286e+00
1.087308e+01 1.080148e+00
1.088597e+01 1.082016e+00
1.089894e+01 1.083902e+00
1.091200e+01 1.085727e+00
1.092516e+01 1.087513e+00
1.093840e+01 1.089344e+00
1.095173e+01 1.091164e+00
1.096515e+01 1.092969e+00
1.097866e+01 1.094788e+00
1.099226e+01 1.096619e+00
1.100595e+01 1.098478e+00
1.101972e+01 1.100372e+00
1.103359e+01 1.102313e+00
1.104754e+01 1.104235e+00
1.106159e+01 1.106133e+00
1.107572e+01 1.108017e+00
1.108994e+01 1.109886e+00
1.110424e+01 1.111772e+00
1.111864e+01 1.113655e+00
1.113312e+01 1.115550e+00
1.114769e+01 1.117481e+00
1.116234e+01 1.119414e+00
1.117709e+01 1.121344e+00
1.119192e+01 1.123257e+00
1.120684e+01 1.125163e+00
1.122184e+01 1.127054e+00
1.123693e+01 1.128958e+00
1.125211e+01 1.130904e+00
1.126738e+01 1.132888e+00
1.128273e+01 1.134889e+00
1.129816e+01 1.136892e+00
1.131368e+01 1.138890e+00
1.132929e+01 1.140888e+00
1.134499e+01 1.142859e+00
1.136077e+01 1.144771e+00
1.137663e+01 1.146633e+00
1.139258e+01 1.148480e+00
1.140861e+01 1.150267e+00
1.142473e+01 1.151980e+00
1.144094e+01 1.153637e+00
1.145723e+01 1.155286e+00
1.147360e+01 1.156944e+00
1.149006e+01 1.158647e+00
1.150660e+01 1.160418e+00
1.152322e+01 1.162237e+00
1.153993e+01 1.164077e+00
1.155672e+01 1.165943e+00
1.157360e+01 1.167852e+00
1.159055e+01 1.169810e+00
1.160760e+01 1.171801e+00
1.162472e+01 1.173784e+00
1.164193e+01 1.175744e+00
1.165922e+01 1.177665e+00
1.167659e+01 1.179591e+00
1.169404e+01 1.181522e+00
1.171158e+01 1.183466e+00
1.172919e+01 1.185392e+00
1.174689e+01 1.187285e+00
1.176467e+01 1.189156e+00
1.178254e+01 1.191029e+00
1.180048e+01 1.192914e+00
1.181850e+01 1.194848e+00
1.183661e+01 1.196798e+00
1.185479e+01 1.198748e+00
1.187306e+01 1.200708e+00
1.189140e+01 1.202644e+00
1.190983e+01 1.204599e+00
1.192834e+01 1.206611e+00
1.194692e+01 1.208682e+00
1.196559e+01 1.210759e+00
1.198433e+01 1.212834e+00
1.200315e+01 1.214877e+00
1.202206e+01 1.216871e+00
1.204104e+01 1.218876e+00
1.206010e+01 1.220872e+00
1.207923e+01 1.222786e+00
1.209845e+01 1.224632e+00
1.211774e+01 1.226407e+00
1.213712e+01 1.228195e+00
1.215657e+01 1.230019e+00
1.217609e+01 1.231853e+00
1.219570e+01 1.233699e+00
1.221538e+01 1.235537e+00
1.223513e+01 1.237336e+00
1.225497e+01 1.239078e+00
1.227488e+01 1.240824e+00
1.229487e+01 1.242631e+00
1.231493e+01 1.244484e+00
1.233507e+01 1.246279e+00
1.235528e+01 1.248027e+00
1.237557e+01 1.249781e+00
1.239594e+01 1.251585e+00
1.241638e+01 1.253404e+00
1.243690e+01 1.255281e+00
1.245749e+01 1.257194e+00
1.247815e+01 1.259109e+00
1.249889e+01 1.261058e+00
1.251970e+01 1.263013e+00
1.254059e+01 1.264951e+00
1.256155e+01 1.266912e+00
1.258258e+01 1.268897e+00
1.260369e+01 1.270889e+00
1.262487e+01 1.272928e+00
1.264612e+01 1.274991e+00
1.266745e+01 1.277077e+00
1.268884e+01 1.279185e+00
1.271031e+01 1.281325e+00
1.273186e+01 1.283373e+00
1.275347e+01 1.285381e+00
1.277515e+01 1.287249e+00
1.279691e+01 1.288949e+00
1.281874e+01 1.290621e+00
1.284063e+01 1.292290e+00
1.286260e+01 1.293959e+00
1.288464e+01 1.295611e+00
1.290675e+01 1.297215e+00
1.292893e+01 1.298731e+00
1.295118e+01 1.300147e+00
1.297350e+01 1.301517e+00
1.299589e+01 1.302881e+00
1.301835e+01 1.304248e+00
1.304087e+01 1.305684e+00
1.306347e+01 1.307171e+00
1.308613e+01 1.308715e+00
1.310886e+01 1.310365e+00
1.313166e+01 1.312055e+00
1.315453e+01 1.313775e+00
1.317746e+01 1.315521e+00
1.320047e+01 1.317376e+00
1.322354e+01 1.319348e+00
1.324667e+01 1.321359e+00
1.326987e+01 1.323396e+00
1.329314e+01 1.325445e+00
1.331648e+01 1.327557e+00
1.333988e+01 1.329713e+00
1.336335e+01 1.331840e+00
1.338688e+01 1.333961e+00
1.341048e+01 1.336058e+00
1.343414e+01 1.338012e+00
1.345787e+01 1.339906e+00
1.348166e+01 1.341800e+00
1.350552e+01 1.343808e+00
1.352944e+01 1.345924e+00
1.355343e+01 1.348112e+00
1.357747e+01 1.350353e+00
1.360159e+01 1.352612e+00
1.362576e+01 1.354839e+00
1.365000e+01 1.356937e+00
1.367430e+01 1.358996e+00
1.369866e+01 1.360995e+00
1.372309e+01 1.362949e+00
1.374757e+01 1.364742e+00
1.377212e+01 1.366396e+00
1.379673e+01 1.368125e+00
1.382140e+01 1.369978e+00
1.384614e+01 1.371948e+00
1.387093e+01 1.374069e+00
1.389578e+01 1.376297e+00
1.392070e+01 1.378634e+00
1.394567e+01 1.381165e+00
1.397070e+01 1.383805e+00
1.399580e+01 1.386396e+00
1.402095e+01 1.388888e+00
1.404616e+01 1.391205e+00
1.407143e+01 1.393287e+00
1.409676e+01 1.395124e+00
1.412215e+01 1.396833e+00
1.414759e+01 1.398569e+00
1.417310e+01 1.400268e+00
1.419866e+01 1.401909e+00
1.422427e+01 1.403490e+00
1.424995e+01 1.405069e+00
1.427568e+01 1.406533e+00
1.430147e+01 1.407989e+00
1.432731e+01 1.409439e+00
1.435321e+01 1.410854e+00
1.437917e+01 1.412190e+00
1.440518e+01 1.413376e+00
1.443124e+01 1.414359e+00
1.445737e+01 1.415141e+00
1.448354e+01 1.415778e+00
1.450977e+01 1.416216e+00
1.453606e+01 1.416572e+00
1.456239e+01 1.417036e+00
1.458879e+01 1.417809e+00
1.461523e+01 1.418969e+00
1.464173e+01 1.420490e+00
1.466828e+01 1.422327e+00
1.469489e+01 1.424403e+00
1.472154e+01 1.426657e+00
1.474825e+01 1.428941e+00
1.477501e+01 1.431166e+00
1.480183e+01 1.433299e+00
1.482869e+01 1.435292e+00
1.485560e+01 1.437109e+00
1.488257e+01 1.438694e+00
1.490959e+01 1.440082e+00
1.493665e+01 1.441363e+00
1.496377e+01 1.442613e+00
1.499093e+01 1.443831e+00
1.501815e+01 1.445126e+00
1.504541e+01 1.446476e+00
1.507273e+01 1.447979e+00
1.510009e+01 1.449609e+00
1.512750e+01 1.451294e+00
1.515496e+01 1.452960e+00
1.518246e+01 1.454609e+00
1.521002e+01 1.456167e+00
1.523762e+01 1.457504e+00
1.526527e+01 1.458606e+00
1.529296e+01 1.459467e+00
1.532070e+01 1.460131e+00
1.534849e+01 1.460648e+00
1.537632e+01 1.461089e+00
1.540420e+01 1.461583e+00
1.543213e+01 1.462110e+00
1.546010e+01 1.462584e+00
1.548811e+01 1.462965e+00
1.551617e+01 1.463267e+00
1.554427e+01 1.463518e+00
1.557242e+01 1.463728e+00
1.560061e+01 1.463993e+00
1.562884e+01 1.464365e+00
1.565712e+01 1.464923e+00
1.568544e+01 1.465685e+00
1.571380e+01 1.466622e+00
1.574221e+01 1.467482e+00
1.577065e+01 1.468274e+00
1.579914e+01 1.469078e+00
1.582767e+01 1.469869e+00
1.585624e+01 1.470879e+00
1.588486e+01 1.472261e+00
1.591351e+01 1.473820e+00
1.594220e+01 1.475300e+00
1.597094e+01 1.476630e+00
1.599971e+01 1.477769e+00
1.602852e+01 1.478698e+00
1.605737e+01 1.479535e+00
1.608626e+01 1.480294e+00
1.611519e+01 1.480853e+00
1.614416e+01 1.481272e+00
1.617317e+01 1.481450e+00
1.620221e+01 1.481380e+00
1.623129e+01 1.481109e+00
1.626041e+01 1.480628e+00
1.628956e+01 1.480020e+00
1.631876e+01 1.479386e+00
1.634798e+01 1.478735e+00
1.637725e+01 1.478355e+00
1.640655e+01 1.478327e+00
1.643588e+01 1.478495e+00
1.646525e+01 1.478681e+00
1.649466e+01 1.478900e+00
1.652410e+01 1.479183e+00
1.655357e+01 1.479472e+00
1.658308e+01 1.479799e+00
1.661262e+01 1.480154e+00
1.664220e+01 1.480534e+00
1.667181e+01 1.480906e+00
1.670145e+01 1.481202e+00
1.673112e+01 1.481419e+00
1.676083e+01 1.481522e+00
1.679056e+01 1.481577e+00
1.682033e+01 1.481510e+00
1.685013e+01 1.481369e+00
1.687997e+01 1.481060e+00
1.690983e+01 1.480763e+00
1.693972e+01 1.480785e+00
1.696965e+01 1.481147e+00
1.699960e+01 1.481558e+00
1.702958e+01 1.481863e+00
1.705960e+01 1.481816e+00
1.708964e+01 1.481459e+00
1.711971e+01 1.480843e+00
1.714981e+01 1.479963e+00
1.717993e+01 1.478905e+00
1.721009e+01 1.477661e+00
1.724027e+01 1.476360e+00
1.727048e+01 1.475059e+00
1.730072e+01 1.473709e+00
1.733098e+01 1.472274e+00
1.736127e+01 1.470831e+00
1.739158e+01 1.469334e+00
1.742193e+01 1.467799e+00
1.745229e+01 1.466319e+00
1.748268e+01 1.464970e+00
1.751310e+01 1.463704e+00
1.754354e+01 1.462410e+00
1.757401e+01 1.461319e+00
1.760450e+01 1.460738e+00
1.763501e+01 1.460695e+00
1.766555e+01 1.460981e+00
1.769611e+01 1.461351e+00
1.772669e+01 1.461620e+00
1.775729e+01 1.461820e+00
1.778792e+01 1.461996e+00
1.781857e+01 1.462047e+00
1.784924e+01 1.461915e+00
1.787993e+01 1.461640e+00
1.791064e+01 1.461420e+00
1.794137e+01 1.461292e+00
1.797213e+01 1.461176e+00
1.800290e+01 1.460908e+00
1.803369e+01 1.460441e+00
1.806451e+01 1.459818e+00
1.809534e+01 1.458939e+00
1.812619e+01 1.457744e+00
1.815706e+01 1.456192e+00
1.818794e+01 1.454241e+00
1.821885e+01 1.451749e+00
1.824977e+01 1.448973e+00
1.828071e+01 1.446367e+00
1.831166e+01 1.444111e+00
1.834264e+01 1.442079e+00
1.837363e+01 1.440137e+00
1.840463e+01 1.438195e+00
1.843566e+01 1.436231e+00
1.846669e+01 1.434273e+00
1.849774e+01 1.432356e+00
1.852881e+01 1.430446e+00
1.855989e+01 1.428625e+00
1.859099e+01 1.427088e+00
1.862210e+01 1.425897e+00
1.865322e+01 1.425048e+00
1.868436e+01 1.424496e+00
1.871551e+01 1.424182e+00
1.874667e+01 1.424029e+00
1.877784e+01 1.423986e+00
1.880903e+01 1.424111e+00
1.884023e+01 1.424315e+00
1.887144e+01 1.424554e+00
1.890266e+01 1.424886e+00
1.893389e+01 1.425272e+00
1.896513e+01 1.425695e+00
1.899638e+01 1.426154e+00
1.902764e+01 1.426695e+00
1.905892e+01 1.427233e+00
1.909020e+01 1.427716e+00
1.912149e+01 1.428179e+00
1.915279e+01 1.428823e+00
1.918409e+01 1.429769e+00
1.921541e+01 1.430894e+00
1.924673e+01 1.432020e+00
1.927806e+01 1.433092e+00
1.930940e+01 1.434067e+00
1.934074e+01 1.434866e+00
1.937210e+01 1.435502e+00
1.940345e+01 1.435940e+00
1.943481e+01 1.436291e+00
1.946618e+01 1.436578e+00
1.949756e+01 1.436699e+00
1.952894e+01 1.436654e+00
1.956032e+01 1.436468e+00
1.959171e+01 1.436031e+00
1.962310e+01 1.435409e+00
1.965449e+01 1.434616e+00
1.968589e+01 1.433662e+00
1.971729e+01 1.432546e+00
1.974870e+01 1.431186e+00
1.978011e+01 1.429460e+00
1.981152e+01 1.427513e+00
1.984293e+01 1.425542e+00
1.987434e+01 1.423654e+00
1.990575e+01 1.421912e+00
1.993717e+01 1.420295e+00
1.996858e+01 1.418760e+00
2.000000e+01 1.417297e+00
2.003142e+01 1.415903e+00
2.006283e+01 1.414611e+00
2.009425e+01 1.413443e+00
2.012566e+01 1.412425e+00
2.015707e+01 1.411524e+00
2.018848e+01 1.410728e+00
2.021989e+01 1.410104e+00
2.025130e+01 1.409713e+00
2.028271e+01 1.409514e+00
2.031411e+01 1.409555e+00
2.034551e+01 1.409687e+00
2.037690e+01 1.409892e+00
2.040829e+01 1.410129e+00
2.043968e+01 1.410359e+00
2.047107e+01 1.410615e+00
2.050244e+01 1.410868e+00
2.053382e+01 1.411105e+00
2.056519e+01 1.411407e+00
2.059655e+01 1.411805e+00
2.062791e+01 1.412296e+00
2.065926e+01 1.412837e+00
2.069060e+01 1.413312e+00
2.072194e+01 1.413704e+00
2.075327e+01 1.414182e+00
2.078459e+01 1.414814e+00
2.081591e+01 1.415522e+00
2.084721e+01 1.416254e+00
2.087851e+01 1.416958e+00
2.090980e+01 1.417571e+00
2.094108e+01 1.418040e+00
2.097236e+01 1.418563e+00
2.100362e+01 1.419019e+00
2.103487e+01 1.419377e+00
2.106611e+01 1.419620e+00
2.109734e+01 1.419667e+00
2.112856e+01 1.419388e+00
2.115977e+01 1.418813e+00
2.119097e+01 1.418068e+00
2.122216e+01 1.417140e+00
2.125333e+01 1.416068e+00
2.128449e+01 1.414917e+00
2.131564e+01 1.413660e+00
2.134678e+01 1.412268e+00
2.137790e+01 1.410783e+00
2.140901e+01 1.409466e+00
2.144011e+01 1.408397e+00
2.147119e+01 1.407548e+00
2.150226e+01 1.406931e+00
2.153331e+01 1.406544e+00
2.156435e+01 1.406211e+00
2.159537e+01 1.405946e+00
2.162637e+01 1.405753e+00
2.165736e+01 1.405657e+00
2.168833e+01 1.405693e+00
2.171929e+01 1.405872e+00
2.175023e+01 1.406142e+00
2.178115e+01 1.406456e+00
2.181206e+01 1.406747e+00
2.184294e+01 1.406947e+00
2.187381e+01 1.407132e+00
2.190466e+01 1.407393e+00
2.193550e+01 1.407747e+00
2.196631e+01 1.408060e+00
2.199710e+01 1.408293e+00
2.202787e+01 1.408508e+00
2.205863e+01 1.408858e+00
2.208936e+01 1.409486e+00
2.212007e+01 1.410334e+00
2.215076e+01 1.411209e+00
2.218143e+01 1.412138e+00
2.221208e+01 1.413137e+00
2.224271e+01 1.414184e+00
2.227331e+01 1.415285e+00
2.230389e+01 1.416481e+00
2.233445e+01 1.417683e+00
2.236499e+01 1.419097e+00
2.239550e+01 1.420575e+00
2.242599e+01 1.421910e+00
2.245646e+01 1.423147e+00
2.248690e+01 1.424357e+00
2.251731e+01 1.425526e+00
2.254771e+01 1.426765e+00
2.257807e+01 1.428064e+00
2.260842e+01 1.429133e+00
2.263873e+01 1.429988e+00
2.266902e+01 1.430681e+00
2.269928e+01 1.431162e+00
2.272952e+01 1.431420e+00
2.275973e+01 1.431561e+00
2.278991e+01 1.431586e+00
2.282007e+01 1.431492e+00
2.285019e+01 1.431323e+00
2.288029e+01 1.431065e+00
2.291036e+01 1.430798e+00
2.294040e+01 1.430462e+00
2.297042e+01 1.430280e+00
2.300040e+01 1.430501e+00
2.303035e+01 1.431244e+00
2.306028e+01 1.432429e+00
2.309017e+01 1.434113e+00
2.312003e+01 1.436103e+00
2.314987e+01 1.438250e+00
2.317967e+01 1.440494e+00
2.320944e+01 1.442819e+00
2.323917e+01 1.445399e+00
2.326888e+01 1.447867e+00
2.329855e+01 1.450271e+00
2.332820e+01 1.452628e+00
2.335780e+01 1.455226e+00
2.338738e+01 1.458363e+00
2.341692e+01 1.461804e+00
2.344643e+01 1.465531e+00
2.347590e+01 1.469524e+00
2.350534e+01 1.473839e+00
2.353475e+01 1.478113e+00
2.356412e+01 1.482366e+00
2.359345e+01 1.486855e+00
2.362275e+01 1.491304e+00
2.365202e+01 1.495952e+00
2.368125e+01 1.501120e+00
2.371044e+01 1.506879e+00
2.373959e+01 1.512999e+00
2.376871e+01 1.519094e+00
2.379779e+01 1.524915e+00
2.382683e+01 1.530326e+00
2.385584e+01 1.535495e+00
2.388481e+01 1.540505e+00
2.391374e+01 1.545450e+00
2.394263e+01 1.550398e+00
2.397148e+01 1.555314e+00
2.400029e+01 1.560059e+00
2.402906e+01 1.564527e+00
2.405780e+01 1.568848e+00
2.408649e+01 1.573153e+00
2.411514e+01 1.577155e+00
2.414376e+01 1.580772e+00
2.417233e+01 1.584357e+00
2.420086e+01 1.587402e+00
2.422935e+01 1.589909e+00
2.425779e+01 1.592016e+00
2.428620e+01 1.593633e+00
2.431456e+01 1.594706e+00
2.434288e+01 1.595445e+00
2.437116e+01 1.595973e+00
2.439939e+01 1.595909e+00
2.442758e+01 1.595242e+00
2.445573e+01 1.594185e+00
2.448383e+01 1.592683e+00
2.451189e+01 1.590614e+00
2.453991e+01 1.587869e+00
2.456788e+01 1.584364e+00
2.459580e+01 1.580140e+00
2.462368e+01 1.575236e+00
2.465151e+01 1.569612e+00
2.467930e+01 1.563172e+00
2.470704e+01 1.555754e+00
2.473473e+01 1.547334e+00
2.476238e+01 1.537834e+00
2.478998e+01 1.527152e+00
2.481754e+01 1.515178e+00
2.484504e+01 1.502068e+00
2.487250e+01 1.487837e+00
2.489991e+01 1.472445e+00
2.492727e+01 1.455957e+00
2.495459e+01 1.438418e+00
2.498185e+01 1.419898e+00
2.500907e+01 1.400413e+00
2.503623e+01 1.380078e+00
2.506335e+01 1.359064e+00
2.509041e+01 1.337382e+00
2.511743e+01 1.314871e+00
2.514440e+01 1.291413e+00
2.517131e+01 1.267104e+00
2.519817e+01 1.242452e+00
2.522499e+01 1.218077e+00
2.525175e+01 1.194438e+00
2.527845e+01 1.171481e+00
2.530511e+01 1.148969e+00
2.533172e+01 1.126888e+00
2.535827e+01 1.105316e+00
2.538477e+01 1.084841e+00
2.541121e+01 1.065981e+00
2.543760e+01 1.047631e+00
2.546394e+01 1.030556e+00
2.549023e+01 1.014670e+00
2.551646e+01 9.997449e-01
2.554263e+01 9.861110e-01
2.556876e+01 9.739364e-01
2.559482e+01 9.633824e-01
2.562083e+01 9.544072e-01
2.564679e+01 9.467982e-01
2.567269e+01 9.408447e-01
2.569853e+01 9.364665e-01
2.572432e+01 9.333111e-01
2.575005e+01 9.310841e-01
2.577573e+01 9.296569e-01
2.580134e+01 9.288562e-01
2.582691e+01 9.281705e-01
2.585241e+01 9.275263e-01
2.587785e+01 9.269389e-01
2.590324e+01 9.261830e-01
2.592857e+01 9.251176e-01
2.595384e+01 9.236678e-01
2.597905e+01 9.219825e-01
2.600420e+01 9.201694e-01
2.602930e+01 9.180907e-01
2.605433e+01 9.157002e-01
2.607930e+01 9.127528e-01
2.610422e+01 9.089470e-01
2.612907e+01 9.047985e-01
2.615386e+01 9.009380e-01
2.617860e+01 8.974836e-01
2.620327e+01 8.941685e-01
2.622788e+01 8.908312e-01
2.625243e+01 8.874483e-01
2.627691e+01 8.841016e-01
2.630134e+01 8.809714e-01
2.632570e+01 8.781100e-01
2.635000e+01 8.754287e-01
2.637424e+01 8.734370e-01
2.639842e+01 8.718774e-01
2.642253e+01 8.712463e-01
2.644657e+01 8.714000e-01
2.647056e+01 8.718524e-01
2.649448e+01 8.727088e-01
2.651834e+01 8.741448e-01
2.654213e+01 8.761463e-01
2.656586e+01 8.786570e-01
2.658952e+01 8.817560e-01
2.661312e+01 8.855138e-01
2.663665e+01 8.893898e-01
2.666012e+01 8.938131e-01
2.668352e+01 8.998373e-01
2.670686e+01 9.070431e-01
2.673012e+01 9.153351e-01
2.675333e+01 9.253504e-01
2.677646e+01 9.366804e-01
2.679953e+01 9.485784e-01
2.682254e+01 9.608513e-01
2.684548e+01 9.733522e-01
2.686834e+01 9.863822e-01
2.689113e+01 9.996322e-01
2.691387e+01 1.013605e+00
2.693653e+01 1.028355e+00
2.695913e+01 1.043762e+00
2.698165e+01 1.059833e+00
2.700411e+01 1.076437e+00
2.702650e+01 1.093428e+00
2.704882e+01 1.110704e+00
2.707106e+01 1.128166e+00
2.709325e+01 1.145950e+00
2.711535e+01 1.164105e+00
2.713740e+01 1.182716e+00
2.715936e+01 1.201906e+00
2.718126e+01 1.221767e+00
2.720309e+01 1.242136e+00
2.722484e+01 1.262888e+00
2.724654e+01 1.283917e+00
2.726815e+01 1.305038e+00
2.728968e+01 1.326155e+00
2.731116e+01 1.347315e+00
2.733255e+01 1.368624e+00
2.735387e+01 1.390206e+00
2.737513e+01 1.412006e+00
2.739631e+01 1.433993e+00
2.741742e+01 1.456254e+00
2.743845e+01 1.478610e+00
2.745941e+01 1.501014e+00
2.748030e+01 1.523370e+00
2.750111e+01 1.545549e+00
2.752186e+01 1.567505e+00
2.754251e+01 1.589203e+00
2.756310e+01 1.610481e+00
2.758362e+01 1.631165e+00
2.760406e+01 1.650969e+00
2.762442e+01 1.669461e+00
2.764472e+01 1.686468e+00
2.766493e+01 1.702124e+00
2.768507e+01 1.716438e+00
2.770513e+01 1.729276e+00
2.772512e+01 1.740203e+00
2.774503e+01 1.749235e+00
2.776486e+01 1.756681e+00
2.778463e+01 1.762737e+00
2.780431e+01 1.767338e+00
2.782391e+01 1.770410e+00
2.784344e+01 1.771835e+00
2.786288e+01 1.771514e+00
2.788225e+01 1.769431e+00
2.790155e+01 1.765703e+00
2.792076e+01 1.760520e+00
2.793991e+01 1.754147e+00
2.795896e+01 1.746784e+00
2.797794e+01 1.738595e+00
2.799685e+01 1.729819e+00
2.801567e+01 1.720280e+00
2.803441e+01 1.710550e+00
2.805308e+01 1.700719e+00
2.807166e+01 1.690732e+00
2.809017e+01 1.680634e+00
2.810860e+01 1.670324e+00
2.812694e+01 1.659918e+00
2.814521e+01 1.649555e+00
2.816339e+01 1.639292e+00
2.818150e+01 1.629104e+00
2.819952e+01 1.618964e+00
2.821746e+01 1.608857e+00
2.823533e+01 1.598745e+00
2.825311e+01 1.588596e+00
2.827080e+01 1.578608e+00
2.828842e+01 1.568706e+00
2.830596e+01 1.558630e+00
2.832342e+01 1.548576e+00
2.834078e+01 1.538474e+00
2.835807e+01 1.528578e+00
2.837528e+01 1.519054e+00
2.839240e+01 1.509488e+00
2.840945e+01 1.499421e+00
2.842641e+01 1.488765e+00
2.844328e+01 1.477504e+00
2.846007e+01 1.465548e+00
2.847678e+01 1.452894e+00
2.849340e+01 1.439812e+00
2.850995e+01 1.426090e+00
2.852640e+01 1.411986e+00
2.854278e+01 1.397572e+00
2.855906e+01 1.382894e+00
2.857526e+01 1.367740e+00
2.859139e+01 1.352115e+00
2.860742e+01 1.336177e+00
2.862337e+01 1.320020e+00
2.863924e+01 1.303758e+00
2.865501e+01 1.287440e+00
2.867071e+01 1.271025e+00
2.868631e+01 1.254421e+00
2.870183e+01 1.237813e+00
2.871728e+01 1.221132e+00
2.873262e+01 1.204440e+00
2.874789e+01 1.187863e+00
2.876307e+01 1.171809e+00
2.877816e+01 1.156012e+00
2.879317e+01 1.140678e+00
2.880808e+01 1.125794e+00
2.882291e+01 1.111325e+00
2.883766e+01 1.097180e+00
2.885231e+01 1.083469e+00
2.886689e+01 1.070308e+00
2.888136e+01 1.057772e+00
2.889576e+01 1.045828e+00
2.891007e+01 1.034507e+00
2.892428e+01 1.023675e+00
2.893842e+01 1.013456e+00
2.895246e+01 1.003933e+00
2.896641e+01 9.950120e-01
2.898028e+01 9.865228e-01
2.899405e+01 9.783376e-01
2.900774e+01 9.701160e-01
2.902134e+01 9.621847e-01
2.903485e+01 9.548127e-01
2.904827e+01 9.479414e-01
2.906160e+01 9.414302e-01
2.907484e+01 9.352521e-01
2.908800e+01 9.292904e-01
2.910106e+01 9.234091e-01
2.911404e+01 9.175279e-01
2.912692e+01 9.116177e-01
2.913971e+01 9.056842e-01
2.915241e+01 8.998318e-01
2.916502e+01 8.940267e-01
2.917754e+01 8.882347e-01
2.918998e+01 8.826371e-01
2.920232e+01 8.772645e-01
2.921457e+01 8.721230e-01
2.922673e+01 8.673286e-01
2.923879e+01 8.627198e-01
2.925077e+01 8.583894e-01
2.926266e+01 8.544755e-01
2.927445e+01 8.509622e-01
2.928615e+01 8.477809e-01
2.929776e+01 8.447914e-01
2.930929e+01 8.420766e-01
2.932071e+01 8.397372e-01
2.933204e+01 8.377220e-01
2.934329e+01 8.360355e-01
2.935444e+01 8.347125e-01
2.936550e+01 8.337105e-01
2.937647e+01 8.330270e-01
2.938734e+01 8.326718e-01
2.939812e+01 8.326072e-01
2.940881e+01 8.328502e-01
2.941940e+01 8.334818e-01
2.942991e+01 8.343625e-01
2.944031e+01 8.356438e-01
2.945063e+01 8.372686e-01
2.946085e+01 8.391166e-01
2.947098e+01 8.412445e-01
2.948102e+01 8.438822e-01
2.949096e+01 8.468179e-01
2.950081e+01 8.501882e-01
2.951057e+01 8.541519e-01
2.952022e+01 8.587322e-01
2.952980e+01 8.639272e-01
2.953927e+01 8.696401e-01
2.954864e+01 8.758613e-01
2.955793e+01 8.825376e-01
2.956712e+01 8.897128e-01
2.957622e+01 8.975003e-01
2.958522e+01 9.059692e-01
2.959412e+01 9.151360e-01
2.960294e+01 9.249256e-01
2.961165e+01 9.352738e-01
2.962028e+01 9.463601e-01
2.962880e+01 9.580771e-01
2.963724e+01 9.702027e-01
2.964558e+01 9.826440e-01
2.965382e+01 9.952936e-01
2.966196e+01 1.008102e+00
2.967002e+01 1.021046e+00
2.967797e+01 1.034116e+00
2.968583e+01 1.047451e+00
2.969360e+01 1.061093e+00
2.970126e+01 1.075084e+00
2.970884e+01 1.089301e+00
2.971632e+01 1.103854e+00
2.972370e+01 1.118878e+00
2.973099e+01 1.134357e+00
2.973817e+01 1.150207e+00
2.974527e+01 1.166302e+00
2.975227e+01 1.182596e+00
2.975917e+01 1.199089e+00
2.976597e+01 1.215813e+00
2.977268e+01 1.232717e+00
2.977930e+01 1.249766e+00
2.978581e+01 1.266955e+00
2.979223e+01 1.284198e+00
2.979855e+01 1.301548e+00
2.980478e+01 1.318933e+00
2.981090e+01 1.336376e+00
2.981694e+01 1.353844e+00
2.982287e+01 1.371333e+00
2.982871e+01 1.388900e+00
2.983445e+01 1.406642e+00
2.984009e+01 1.424393e+00
2.984564e+01 1.442056e+00
2.985109e+01 1.459604e+00
2.985645e+01 1.476979e+00
2.986170e+01 1.494110e+00
2.986686e+01 1.510888e+00
2.987192e+01 1.527225e+00
2.987688e+01 1.543040e+00
2.988175e+01 1.558155e+00
2.988652e+01 1.572354e+00
2.989119e+01 1.585607e+00
2.989576e+01 1.597879e+00
2.990024e+01 1.609148e+00
2.990461e+01 1.619374e+00
2.990889e+01 1.628447e+00
2.991308e+01 1.636278e+00
2.991716e+01 1.642686e+00
2.992115e+01 1.647565e+00
2.992503e+01 1.650853e+00
2.992883e+01 1.652512e+00
2.993252e+01 1.652543e+00
2.993611e+01 1.650842e+00
2.993961e+01 1.647387e+00
2.994301e+01 1.642023e+00
2.994631e+01 1.634786e+00
2.994951e+01 1.625699e+00
2.995261e+01 1.614848e+00
2.995562e+01 1.602347e+00
2.995853e+01 1.588368e+00
2.996134e+01 1.573159e+00
2.996405e+01 1.557404e+00
2.996666e+01 1.541514e+00
2.996917e+01 1.525692e+00
2.997159e+01 1.510070e+00
2.997391e+01 1.494706e+00
2.997613e+01 1.479619e+00
2.997825e+01 1.464830e+00
2.998027e+01 1.450316e+00
2.998219e+01 1.436300e+00
2.998402e+01 1.422969e+00
2.998574e+01 1.410500e+00
2.998737e+01 1.398988e+00
2.998890e+01 1.388391e+00
2.999033e+01 1.378747e+00
2.999166e+01 1.370173e+00
2.999289e+01 1.362563e+00
2.999403e+01 1.355573e+00
2.999507e+01 1.348709e+00
2.999600e+01 1.341452e+00
2.999684e+01 1.333742e+00
2.999758e+01 1.325574e+00
2.999822e+01 1.316779e+00
2.999877e+01 1.307288e+00
2.999921e+01 1.297047e+00
2.999956e+01 1.286243e+00
2.999980e+01 1.275060e+00
2.999995e+01 1.263608e+00
3.000000e+01 1.252043e+00
